<svg width="24" height="24" viewBox="0 0 24 24" fill="none" xmlns="http://www.w3.org/2000/svg">
<path d="M12 1C6.48 1 2 5.48 2 11C2 16.52 6.48 21 12 21C17.52 21 22 16.52 22 11C22 5.48 17.52 1 12 1ZM12 4C13.66 4 15 5.34 15 7C15 8.66 13.66 10 12 10C10.34 10 9 8.66 9 7C9 5.34 10.34 4 12 4ZM12 18.2C9.5 18.2 7.29 16.92 6 14.98C6.03 12.99 10 11.9 12 11.9C13.99 11.9 17.97 12.99 18 14.98C16.71 16.92 14.5 18.2 12 18.2Z" fill="white"/>
</svg>
