<svg width="35" height="35" viewBox="0 0 35 35" fill="none" xmlns="http://www.w3.org/2000/svg">
<path d="M17.5 2.91667C9.45002 2.91667 2.91669 9.45 2.91669 17.5C2.91669 25.55 9.45002 32.0833 17.5 32.0833C25.55 32.0833 32.0834 25.55 32.0834 17.5C32.0834 9.45 25.55 2.91667 17.5 2.91667ZM18.9584 24.7917H16.0417V16.0417H18.9584V24.7917ZM18.9584 13.125H16.0417V10.2083H18.9584V13.125Z" fill="#FFA800"/>
</svg>
